material dead_spryte_eye
{
	technique
	{
		pass
		{
			ambient 0.705882 0.537255 0.494118 
			diffuse 0.705882 0.537255 0.494118 
			specular 0.819 0.819 0.819 54
			emissive 0.18 0.18 0.18 

			texture_unit 
			{
				texture skin_ico_eye_idle.jpg
			}
		}
	}
}


material dead_spryte_skin
{
	technique
	{
		pass
		{
			ambient 1 0.360784 0.360784 
			diffuse 1 0.360784 0.360784 
			specular 0 0 0 1
			emissive 0 0 0 

			texture_unit 
			{
				texture spryte_dead.jpg
			}
		}
	}
}





