material machine_tray_ash
{
	technique
	{
		pass
		{
			ambient 0.588235 0.588235 0.588235 
			diffuse 0.588235 0.588235 0.588235 
			specular 0 0 0 10
			emissive 0 0 0 

			texture_unit 
			{
				texture ash.jpg
			}
		}
	}
}


material machine_tray_white
{
	technique
	{
		pass
		{
			ambient 0.568627 0.678431 0.74902 
			diffuse 0.568627 0.678431 0.74902 
			specular 0 0 0 10
			emissive 0 0 0 
		}
	}
}


