material gold
{
	technique
	{
		pass
		{
			ambient 0.643137 0.470588 0 
			diffuse 0.643137 0.470588 0 
			specular 0.936 0.936 0.936 22
			emissive 0 0 0 
		}
	}
}

material velvet
{
	technique
	{
		pass
		{
			ambient 0.588 0.588 0.588 
			diffuse 0.588 0.588 0.588 
			specular 0 0 0 10
			emissive 0 0 0 

			texture_unit 
			{
				texture velvet.jpg
			}
		}
	}
}
