
material OBJ_tree04
{
	technique
	{
		pass
		{
			ambient 0 0 0 1
			diffuse 0 0 0 1
			specular 0.694118 0.686275 0.631373 1 3.5
			emissive 0.466667 0.466667 0.466667 1


			texture_unit
			{
				texture_alias Map #3
				texture OBJ_tree04.jpg
			}
		}

	}

}
